<?xml version="1.0" encoding="iso-8859-1"?>
<!-- Generator: Adobe Illustrator 19.0.0, SVG Export Plug-In . SVG Version: 6.00 Build 0)  -->
<svg xmlns="http://www.w3.org/2000/svg" xmlns:xlink="http://www.w3.org/1999/xlink" version="1.1" id="Capa_1" x="0px" y="0px" viewBox="0 0 511.998 511.998" style="enable-background:new 0 0 511.998 511.998;" xml:space="preserve" width="512px" height="512px">
<g>
	<g>
		<path d="M366.335,304.965c40.481-31.117,66.626-80.006,66.626-134.895C432.961,76.293,356.668,0,262.891,0    c-34.348,0-67.25,10.124-95.466,29.311L141.233,7.948c-4.279-3.489-10.064-4.253-15.101-1.992    c-5.036,2.26-8.312,7.089-8.55,12.604l-1.032,23.899l-23.205,5.815c-5.354,1.342-9.426,5.522-10.627,10.91    c-1.202,5.388,0.709,10.902,4.988,14.392l23.627,19.271c-6.423,12.581-11.233,25.867-14.338,39.629l-3.45,0.001    c-5.52,0.002-10.485,3.068-12.958,8.004c-2.473,4.935-1.958,10.748,1.345,15.172l14.313,19.168l-14.3,19.178    c-3.3,4.426-3.811,10.239-1.334,15.173c2.476,4.932,7.44,7.995,12.958,7.995c0.001,0,0.003,0,0.005,0l5.868-0.002    c2.893,10.052,6.578,19.923,11.415,29.204c3.201,6.143,8.989,3.875,10.069,3.332c3.701-1.861,5.193-6.369,3.332-10.07    c-3.636-7.232-6.69-14.761-9.146-22.471l28.661-0.01c3.368-0.001,6.643-0.707,9.649-2c8.15,19.848,21.466,36.992,38.93,49.972    c20.516,15.249,44.908,23.309,70.54,23.309c65.264,0,118.359-53.097,118.359-118.36c0-30.371-11.486-59.245-32.344-81.304    c-2.846-3.011-7.593-3.144-10.602-0.297c-3.01,2.846-3.144,7.592-0.297,10.602c18.212,19.263,28.242,44.477,28.242,70.999    c0,56.993-46.367,103.36-103.359,103.36c-44.228,0-83.043-27.668-97.551-69.155l12.607-21.982l31.573-0.01    c5.567,24.333,27.374,42.547,53.371,42.547c30.195,0,54.761-24.565,54.761-54.761c0-30.196-24.565-54.761-54.761-54.761    c-12.046,0-23.189,3.919-32.241,10.535l-38.383-31.307c18.652-17.424,43.627-27.827,70.624-27.827    c18.021,0,35.758,4.704,51.295,13.604c3.59,2.06,8.176,0.815,10.235-2.78c2.059-3.594,0.814-8.177-2.78-10.235    c-17.803-10.198-38.118-15.589-58.75-15.589c-29.049,0-56.058,10.518-76.934,28.344l2.867-17.414    c1.421-8.634-1.908-17.434-8.689-22.964l-0.532-0.434C204.469,23.358,233.082,15,262.891,15c85.506,0,155.07,69.564,155.07,155.07    s-69.564,155.07-155.07,155.07c-48.28,0-92.966-21.906-122.599-60.104c-2.539-3.271-7.25-3.866-10.523-1.328    c-3.273,2.539-3.868,7.25-1.329,10.523c9.111,11.744,19.522,22.083,30.952,30.883l-31.64,89.546    c-1.38,3.906,0.667,8.19,4.573,9.57c0.826,0.292,6.732,2.281,9.57-4.572l30.259-85.636c16.497,10.432,34.697,17.918,53.905,22.131    l-55.672,157.559c-0.695,1.968-2.562,3.287-4.673,3.287c-0.005,0-0.011,0-0.017,0h-51.2c-2.157-0.007-3.401-1.317-3.952-2.099    c-0.461-0.654-1.449-2.417-0.663-4.642l21.345-60.41c1.38-3.906-0.667-8.19-4.573-9.57c-3.907-1.38-8.19,0.667-9.57,4.572    l-21.345,60.41c-2.162,6.118-1.211,12.952,2.544,18.281c3.717,5.274,9.76,8.436,16.188,8.457h51.2c0.022,0,0.044,0,0.066,0    c8.433,0,15.98-5.334,18.792-13.289l32.22-91.187v47.877c0,11.333,9.22,20.554,20.553,20.554h51.175    c11.333,0,20.553-9.221,20.553-20.554V407.52l32.221,91.188c2.811,7.957,10.355,13.29,18.766,13.29c0.021,0,0.045,0,0.066,0    h51.222c6.413-0.021,12.464-3.188,16.188-8.473c3.754-5.328,4.706-12.156,2.547-18.266L366.335,304.965z M132.526,20.203    l38.127,31.098c2.629,2.145,3.92,5.557,3.37,8.905L171.2,77.355L131.457,44.94L132.526,20.203z M97.959,62.583l24.017-6.019    l39.742,32.415l-16.232,6.213c-3.168,1.209-6.77,0.634-9.4-1.511L97.959,62.583z M164.694,103.903    c-6.037,8.966-10.893,18.855-14.341,29.476c-2.124-0.597-4.341-0.917-6.601-0.917c-0.002,0-0.006,0-0.008,0l-31.336,0.01    c2.568-10.318,6.201-20.325,10.842-29.904l3.355,2.737c4.435,3.618,9.942,5.508,15.508,5.508c2.945,0,5.907-0.529,8.735-1.611    L164.694,103.903z M94.547,147.478l49.202-0.017c0.001,0,0.002,0,0.003,0c3.392,0,6.548,1.827,8.238,4.768l8.657,15.072    l-51.286,0.017L94.547,147.478z M152.005,197.376c-1.688,2.944-4.845,4.773-8.238,4.774l-49.202,0.017l14.801-19.85l51.286-0.017    L152.005,197.376z M231.41,145.825l6.471,5.278c3.21,2.618,7.934,2.139,10.552-1.072c2.618-3.211,2.139-7.934-1.072-10.552    l-4.546-3.708c5.899-3.465,12.757-5.461,20.076-5.461c21.924,0,39.761,17.837,39.761,39.761s-17.837,39.761-39.761,39.761    c-17.666,0-32.67-11.584-37.835-27.552l33.882-0.011c4.143-0.001,7.499-3.36,7.497-7.502c-0.002-4.142-3.36-7.499-7.503-7.498    l-35.694,0.012C223.799,159.238,226.759,151.85,231.41,145.825z M182.06,105.57l37.733,30.777    c-6.76,8.62-11.007,19.301-11.593,30.937l-30.258,0.01l-12.945-22.537c-0.503-0.875-1.061-1.706-1.659-2.502    C167.145,128.575,173.592,116.18,182.06,105.57z M294.031,455.401c0,3.063-2.491,5.554-5.553,5.554h-51.175    c-3.062,0-5.553-2.491-5.553-5.554v-90.33l9.302-26.327c7.182,0.914,14.47,1.396,21.838,1.396c7.398,0,14.686-0.477,21.838-1.398    l9.303,26.328V455.401z M411.281,497h-51.222c-0.005,0-0.011,0-0.016,0c-2.087,0-3.953-1.319-4.648-3.287l-55.686-157.598    c19.402-4.299,37.568-11.918,53.868-22.234l62.322,176.379C416.681,492.473,416.224,497,411.281,497z" fill="#c0a16b"/>
	</g>
</g>
<g>
</g>
<g>
</g>
<g>
</g>
<g>
</g>
<g>
</g>
<g>
</g>
<g>
</g>
<g>
</g>
<g>
</g>
<g>
</g>
<g>
</g>
<g>
</g>
<g>
</g>
<g>
</g>
<g>
</g>
</svg>
